{
  "count": 1,
  "next": "https://panelapp.genomicsengland.co.uk/api/v1/panels/?page=2",
  "previous": null,
  "results": [
    {
      "id": 1208,
      "hash_id": null,
      "name": "Agammaglobulinaemia with absent BTK expression",
      "disease_group": "",
      "disease_sub_group": "",
      "status": "public",
      "version": "1.1",
      "version_created": "2023-09-14T12:48:53.836747Z",
      "relevant_disorders": [
        "R233"
      ],
      "stats": {
        "number_of_genes": 1,
        "number_of_strs": 0,
        "number_of_regions": 0
      },
      "types": [
        {
          "name": "GMS Rare Disease",
          "slug": "gms-rare-disease",
          "description": "This panel type is used for GMS panels that are not virtual (i.e. could be a wet lab test)"
        },
        {
          "name": "GMS signed-off",
          "slug": "gms-signed-off",
          "description": "This panel has undergone review by a NHSE GMS disease specialist group and processes to be signed-off for use within the GMS."
        }
      ]
    }
      ]
    }
  ]
}
